module codeberg.org/bergblau/webmilterd

go 1.18

require (
	codeberg.org/bergblau/postfix-socketmap-table v1.0.0
	github.com/deepmap/oapi-codegen v1.11.0
	github.com/emersion/go-milter v0.3.3
	github.com/rs/xid v1.4.0
	github.com/sirupsen/logrus v1.9.0
	github.com/spf13/viper v1.12.0
)

require (
	github.com/emersion/go-message v0.11.2 // indirect
	github.com/fsnotify/fsnotify v1.5.4 // indirect
	github.com/google/uuid v1.3.0 // indirect
	github.com/hashicorp/hcl v1.0.0 // indirect
	github.com/magiconair/properties v1.8.6 // indirect
	github.com/mitchellh/mapstructure v1.5.0 // indirect
	github.com/pelletier/go-toml v1.9.5 // indirect
	github.com/pelletier/go-toml/v2 v2.0.1 // indirect
	github.com/seandlg/netstring v1.0.0 // indirect
	github.com/spf13/afero v1.8.2 // indirect
	github.com/spf13/cast v1.5.0 // indirect
	github.com/spf13/jwalterweatherman v1.1.0 // indirect
	github.com/spf13/pflag v1.0.5 // indirect
	github.com/subosito/gotenv v1.3.0 // indirect
	golang.org/x/sys v0.0.0-20220715151400-c0bba94af5f8 // indirect
	golang.org/x/text v0.3.7 // indirect
	gopkg.in/ini.v1 v1.66.4 // indirect
	gopkg.in/yaml.v2 v2.4.0 // indirect
	gopkg.in/yaml.v3 v3.0.0 // indirect
)
